<?xml version="1.0" encoding="UTF-8" standalone="no"?>
<!-- Generator: Adobe Illustrator 16.0.0, SVG Export Plug-In . SVG Version: 6.00 Build 0)  -->

<svg
   xmlns:dc="http://purl.org/dc/elements/1.1/"
   xmlns:cc="http://creativecommons.org/ns#"
   xmlns:rdf="http://www.w3.org/1999/02/22-rdf-syntax-ns#"
   xmlns:svg="http://www.w3.org/2000/svg"
   xmlns="http://www.w3.org/2000/svg"
   xmlns:sodipodi="http://sodipodi.sourceforge.net/DTD/sodipodi-0.dtd"
   xmlns:inkscape="http://www.inkscape.org/namespaces/inkscape"
   version="1.1"
   id="Capa_1"
   x="0px"
   y="0px"
   width="71.234px"
   height="71.234px"
   viewBox="0 0 71.234 71.234"
   style="enable-background:new 0 0 71.234 71.234;"
   xml:space="preserve"
   sodipodi:docname="campaign-tweaking.svg"
   inkscape:version="0.92.4 5da689c313, 2019-01-14"><metadata
   id="metadata55"><rdf:RDF><cc:Work
       rdf:about=""><dc:format>image/svg+xml</dc:format><dc:type
         rdf:resource="http://purl.org/dc/dcmitype/StillImage" /></cc:Work></rdf:RDF></metadata><defs
   id="defs53" /><sodipodi:namedview
   pagecolor="#ffffff"
   bordercolor="#666666"
   borderopacity="1"
   objecttolerance="10"
   gridtolerance="10"
   guidetolerance="10"
   inkscape:pageopacity="0"
   inkscape:pageshadow="2"
   inkscape:window-width="1920"
   inkscape:window-height="1025"
   id="namedview51"
   showgrid="false"
   inkscape:zoom="3.3130246"
   inkscape:cx="35.617001"
   inkscape:cy="35.617001"
   inkscape:window-x="0"
   inkscape:window-y="0"
   inkscape:window-maximized="1"
   inkscape:current-layer="g14" />
<g
   id="g18">
	<g
   id="g16">
		<g
   id="g14">
			<path
   d="m 30.465,32.433 c 0.224,0.447 0.447,0.896 0.672,1.567 h 38.527 v 6.271 H 31.137 c -0.225,0.448 -0.448,1.12 -0.672,1.567 H 71.233 V 32.653 H 30.465 Z"
   id="path2"
   inkscape:connector-curvature="0" />
			<path
   d="m 45.248,56.593 h 24.641 v 6.27 H 45.248 c -0.223,0.449 -0.447,1.121 -0.672,1.57 H 71.232 V 55.248 H 44.576 c 0.225,0.225 0.449,0.897 0.672,1.345 z"
   id="path4"
   inkscape:connector-curvature="0" />
			<path
   d="m 59.136,11.185 h 10.527 v 6.271 H 59.136 c -0.225,0.447 -0.446,1.119 -0.672,1.566 H 71.235 V 9.837 H 58.464 c 0.225,0.226 0.448,0.898 0.672,1.348 z"
   id="path6"
   inkscape:connector-curvature="0" />
			<path
   d="m 21.729,44.977 c 4.256,0 7.84,-3.36 7.84,-7.84 0,-4.257 -3.36,-7.841 -7.84,-7.841 -2.464,0 -4.704,1.12 -6.048,3.137 H 0 v 9.184 h 15.456 c 1.569,2.015 3.809,3.36 6.273,3.36 z"
   id="path8"
   inkscape:connector-curvature="0" />
			<path
   d="m 35.616,67.567 c 4.256,0 7.84,-3.356 7.84,-7.838 0,-4.256 -3.358,-7.84 -7.84,-7.84 -2.464,0 -4.704,1.119 -6.048,3.136 H 0 v 9.186 h 29.345 c 1.567,2.013 3.808,3.356 6.271,3.356 z"
   id="path10"
   inkscape:connector-curvature="0" />
			<path
   d="m 49.506,6.479 c -2.465,0 -4.705,1.121 -6.049,3.138 H 0 v 9.186 h 43.457 c 1.344,1.791 3.584,3.136 6.271,3.136 4.256,0 7.84,-3.359 7.84,-7.84 -0.222,-4.036 -3.807,-7.62 -8.062,-7.62 z"
   id="path12"
   inkscape:connector-curvature="0" />
		</g>
	</g>
</g>
<g
   id="g20">
</g>
<g
   id="g22">
</g>
<g
   id="g24">
</g>
<g
   id="g26">
</g>
<g
   id="g28">
</g>
<g
   id="g30">
</g>
<g
   id="g32">
</g>
<g
   id="g34">
</g>
<g
   id="g36">
</g>
<g
   id="g38">
</g>
<g
   id="g40">
</g>
<g
   id="g42">
</g>
<g
   id="g44">
</g>
<g
   id="g46">
</g>
<g
   id="g48">
</g>
</svg>